…
``` r
study_df
```

    ## # A tibble: 160 × 4
    ##    arm   subject_id week  observations
    ##    <chr> <chr>      <chr>        <dbl>
    ##  1 con   01         1             0.2 
    ##  2 con   01         2            -1.31
    ##  3 con   01         3             0.66
    ##  4 con   01         4             1.96
    ##  5 con   01         5             0.23
    ##  6 con   01         6             1.09
    ##  7 con   01         7             0.05
    ##  8 con   01         8             1.94
    ##  9 con   02         1             1.13
    ## 10 con   02         2            -0.88
    ## # ℹ 150 more rows
…
